{
  "download_folder": "C:\\Users\\Yair\\Downloads\\dr_stone",
  "season": 1,
  "link_list": [
    "",
    "https://drive.google.com/file/d/1KEEmFGFpcJQbRHU6KnCS1PT4otRWf_D5/view",
    "https://drive.google.com/file/d/1q5DYCzIQNAidQBkBcLU0ZJa9bQzFb2NS/view",
    "https://drive.google.com/file/d/1lXnJ1yKgp5bH2zGImO1O0Y6fnN90deaY/view",
    "https://drive.google.com/file/d/1t1N921AelxOwpUGp3_ARMB1MzqnF5Y5m/view",
    "https://drive.google.com/file/d/1Vvs2yJ-gdVp8HO9afUCsPyZcbq9cPwIg/view",
    "https://drive.google.com/file/d/1OpF_iGKxSuAmrZlCRJ9LPB4MfuRMqFd4/view",
    "https://drive.google.com/file/d/1HdXKpU84kLt622FP4IqX0FLSXwBbzlcC/view",
    "https://drive.google.com/file/d/1gZ9Ch--YraFRnL-0LiE1z7l7Yyu3XfA8/view",
    "https://drive.google.com/file/d/1RyNbh_HKQI4j_O32RLyTF4KDUeUA5UPw/view",
    "https://drive.google.com/file/d/1DfFaSMhyfTIJDfxQIzOvnfOlPym44Bw6/view",
    "https://drive.google.com/file/d/1drcoQtRQ_JFS9GdPz-gVkZdJt0QzWIs-/view",
    "https://drive.google.com/file/d/14Lh3Gy81bfos82vE7lQM0HuVZc4T4F0H/view",
    "https://drive.google.com/file/d/1E_JsVbzvnYS6CisalRi9kCGiL8kIJioS/view",
    "https://drive.google.com/file/d/15BkfA0s_GFWD7Cf_k4uY_oiPLrMzdPI3/view",
    "https://drive.google.com/file/d/1zsKojc0jVDB4uyTN0tnO0T8NOmMxzyZ1/view",
    "https://drive.google.com/file/d/1TxnxRdWDknMqx2SJs3jChbOj7svVMeIg/view",
    "https://drive.google.com/file/d/1gNY0rEsQZZe9x8fbrA6vK0mwFYtw1MoM/view",
    "https://drive.google.com/file/d/1Qq08VhekQXqOtpdvC00X3-BhbgdUSwko/view",
    "https://drive.google.com/file/d/1yFFFW0NloSrZlETFcLWk_8TYOmFJ5c6b/view",
    "https://drive.google.com/file/d/1GwrLU4xT5WDifrXh3qv3Foed0TrzqK1K/view",
    "https://drive.google.com/file/d/1iPKKMLqqSiR2jcIyxrxpJ7x5mFJrPOoF/view",
    "https://drive.google.com/file/d/1kYUg10NJa8f-Iw9jvc5ycYr2XCWgRBtk/view",
    "https://drive.google.com/file/d/1DNYJEK2aA7yqxKzu2mhWpZYUO4_lsnZy/view"
  ],
  "group_name": "dr_stone"
}